[gd_scene load_steps=2 format=2]

[ext_resource path="res://gfx/birdie/birdie-pieces.png" type="Texture" id=1]

[node name="BirdieNode" type="Node2D"]

[node name="Polygons" type="Node2D" parent="."]
__meta__ = {
"_edit_group_": true,
"_edit_lock_": true
}

[node name="left_leg" type="Polygon2D" parent="Polygons"]
position = Vector2( -1309.5, 236.25 )
texture = ExtResource( 1 )
skeleton = NodePath("../../Skeleton2D")
polygon = PoolVector2Array( 1735, 334, 1665, 307, 1621, 479, 1513, 516, 1535, 612, 1654, 611, 1653, 508 )
uv = PoolVector2Array( 1735, 334, 1665, 307, 1621, 479, 1513, 516, 1535, 612, 1654, 611, 1653, 508 )
bones = [ NodePath("tailbone"), PoolRealArray( 0, 0, 0, 0, 0, 0, 0 ), NodePath("tailbone/tail"), PoolRealArray( 0, 0, 0, 0, 0, 0, 0 ), NodePath("tailbone/left_upper_leg"), PoolRealArray( 0.5, 0.5, 0.5, 0, 0, 0, 0.5 ), NodePath("tailbone/left_upper_leg/left_lower_leg"), PoolRealArray( 0, 0, 1, 0.5, 0.5, 0.5, 0.5 ), NodePath("tailbone/right_upper_leg"), PoolRealArray( 0, 0, 0, 0, 0, 0, 0 ), NodePath("tailbone/right_upper_leg/right_lower_leg"), PoolRealArray( 0, 0, 0, 0, 0, 0, 0 ) ]

[node name="right_leg" type="Polygon2D" parent="Polygons"]
position = Vector2( -1309.5, 236.25 )
texture = ExtResource( 1 )
skeleton = NodePath("../../Skeleton2D")
polygon = PoolVector2Array( 1823, 338, 1892, 309, 1947, 474, 2063, 507, 2041, 601, 1928, 602, 1917, 508 )
uv = PoolVector2Array( 1823, 338, 1892, 309, 1947, 474, 2063, 507, 2041, 601, 1928, 602, 1917, 508 )
bones = [ NodePath("tailbone"), PoolRealArray( 0, 0, 0.5, 0, 0, 0, 0.5 ), NodePath("tailbone/tail"), PoolRealArray( 0, 0, 0, 0, 0, 0, 0 ), NodePath("tailbone/left_upper_leg"), PoolRealArray( 0, 0, 0, 0, 0, 0, 0 ), NodePath("tailbone/left_upper_leg/left_lower_leg"), PoolRealArray( 0, 0, 0, 0, 0, 0, 0 ), NodePath("tailbone/right_upper_leg"), PoolRealArray( 0.5, 0.5, 0.5, 0, 0, 0, 0.5 ), NodePath("tailbone/right_upper_leg/right_lower_leg"), PoolRealArray( 0, 0, 0, 0.5, 0.5, 0.5, 0 ) ]

[node name="tail" type="Polygon2D" parent="Polygons"]
position = Vector2( -1296, 553.5 )
texture = ExtResource( 1 )
skeleton = NodePath("../../Skeleton2D")
polygon = PoolVector2Array( 1781, 50, 1699, 114, 1713, 145, 1690, 180, 1761, 216, 1772, 240, 1856, 228 )
uv = PoolVector2Array( 1781, 50, 1699, 114, 1713, 145, 1690, 180, 1761, 216, 1772, 240, 1856, 228 )
bones = [ NodePath("tailbone"), PoolRealArray( 0, 0, 0, 0, 0, 0, 0 ), NodePath("tailbone/tail"), PoolRealArray( 0.5, 0.5, 0.5, 0.5, 0.5, 0.5, 0.5 ), NodePath("tailbone/left_upper_leg"), PoolRealArray( 0, 0, 0, 0, 0, 0, 0 ), NodePath("tailbone/left_upper_leg/left_lower_leg"), PoolRealArray( 0, 0, 0, 0, 0, 0, 0 ), NodePath("tailbone/right_upper_leg"), PoolRealArray( 0, 0, 0, 0, 0, 0, 0 ), NodePath("tailbone/right_upper_leg/right_lower_leg"), PoolRealArray( 0, 0, 0, 0, 0, 0, 0 ) ]

[node name="body" type="Polygon2D" parent="Polygons"]
texture = ExtResource( 1 )
skeleton = NodePath("../../Skeleton2D")
polygon = PoolVector2Array( 647, 3, 754, 85, 745, 107, 672, 89, 765, 168, 749, 183, 630, 134, 732, 235, 759, 425, 898, 593, 847, 652, 669, 598, 597.192, 641.598, 501, 700, 345, 684, 254, 611, 96, 686, 17, 640, 161, 458, 156, 309, 224, 166, 360, 92, 466, 6 )
uv = PoolVector2Array( 647, 3, 754, 85, 745, 107, 672, 89, 765, 168, 749, 183, 630, 134, 732, 235, 759, 425, 898, 593, 847, 652, 669, 598, 597.192, 641.598, 501, 700, 345, 684, 254, 611, 96, 686, 17, 640, 161, 458, 156, 309, 224, 166, 360, 92, 466, 6 )
bones = [ NodePath("tailbone"), PoolRealArray( 1, 1, 1, 1, 1, 1, 1, 1, 1, 1, 1, 1, 1, 1, 1, 1, 1, 1, 1, 1, 1, 1, 1 ), NodePath("tailbone/tail"), PoolRealArray( 0, 0, 0, 0, 0, 0, 0, 0, 0, 0, 0, 0, 0, 0, 0, 0, 0, 0, 0, 0, 0, 0, 0 ), NodePath("tailbone/left_upper_leg"), PoolRealArray( 0, 0, 0, 0, 0, 0, 0, 0, 0, 0, 0, 0, 0, 0, 0, 0, 0, 0, 0, 0, 0, 0, 0 ), NodePath("tailbone/left_upper_leg/left_lower_leg"), PoolRealArray( 0, 0, 0, 0, 0, 0, 0, 0, 0, 0, 0, 0, 0, 0, 0, 0, 0, 0, 0, 0, 0, 0, 0 ), NodePath("tailbone/right_upper_leg"), PoolRealArray( 0, 0, 0, 0, 0, 0, 0, 0, 0, 0, 0, 0, 0, 0, 0, 0, 0, 0, 0, 0, 0, 0, 0 ), NodePath("tailbone/right_upper_leg/right_lower_leg"), PoolRealArray( 0, 0, 0, 0, 0, 0, 0, 0, 0, 0, 0, 0, 0, 0, 0, 0, 0, 0, 0, 0, 0, 0, 0 ) ]

[node name="nose" type="Polygon2D" parent="Polygons"]
position = Vector2( -767.25, -13.5 )
texture = ExtResource( 1 )
skeleton = NodePath("../../Skeleton2D")
polygon = PoolVector2Array( 1122, 512, 1233, 656, 1341, 503, 1239, 382 )
uv = PoolVector2Array( 1122, 512, 1233, 656, 1341, 503, 1239, 382 )
bones = [ NodePath("tailbone"), PoolRealArray( 1, 1, 1, 1 ), NodePath("tailbone/tail"), PoolRealArray( 0, 0, 0, 0 ), NodePath("tailbone/left_upper_leg"), PoolRealArray( 0, 0, 0, 0 ), NodePath("tailbone/left_upper_leg/left_lower_leg"), PoolRealArray( 0, 0, 0, 0 ), NodePath("tailbone/right_upper_leg"), PoolRealArray( 0, 0, 0, 0 ), NodePath("tailbone/right_upper_leg/right_lower_leg"), PoolRealArray( 0, 0, 0, 0 ) ]

[node name="eyes" type="Polygon2D" parent="Polygons"]
position = Vector2( -760.5, 99 )
texture = ExtResource( 1 )
skeleton = NodePath("../../Skeleton2D")
polygon = PoolVector2Array( 1217, 140, 1101, 58, 960, 105, 932, 228, 971, 328, 1089, 380, 1196, 323, 1267, 325, 1345, 366, 1472, 332, 1520, 238, 1507, 150, 1425, 64, 1316, 57, 1258, 112, 1226, 145 )
uv = PoolVector2Array( 1217, 140, 1101, 58, 960, 105, 932, 228, 971, 328, 1089, 380, 1196, 323, 1267, 325, 1345, 366, 1472, 332, 1520, 238, 1507, 150, 1425, 64, 1316, 57, 1258, 112, 1226, 145 )
bones = [ NodePath("tailbone"), PoolRealArray( 1, 1, 1, 1, 1, 0.5, 1, 1, 1, 1, 1, 1, 1, 1, 1, 1 ), NodePath("tailbone/tail"), PoolRealArray( 0, 0, 0, 0, 0, 0, 0, 0, 0, 0, 0, 0, 0, 0, 0, 0 ), NodePath("tailbone/left_upper_leg"), PoolRealArray( 0, 0, 0, 0, 0, 0, 0, 0, 0, 0, 0, 0, 0, 0, 0, 0 ), NodePath("tailbone/left_upper_leg/left_lower_leg"), PoolRealArray( 0, 0, 0, 0, 0, 0, 0, 0, 0, 0, 0, 0, 0, 0, 0, 0 ), NodePath("tailbone/right_upper_leg"), PoolRealArray( 0, 0, 0, 0, 0, 0, 0, 0, 0, 0, 0, 0, 0, 0, 0, 0 ), NodePath("tailbone/right_upper_leg/right_lower_leg"), PoolRealArray( 0, 0, 0, 0, 0, 0, 0, 0, 0, 0, 0, 0, 0, 0, 0, 0 ) ]

[node name="Skeleton2D" type="Skeleton2D" parent="."]

[node name="tailbone" type="Bone2D" parent="Skeleton2D"]
position = Vector2( 478, 505 )
rest = Transform2D( 1, 0, 0, 1, 466, 634 )

[node name="tail" type="Bone2D" parent="Skeleton2D/tailbone"]
position = Vector2( -15, 23 )
rest = Transform2D( 1, 0, 0, 1, 1, 55 )

[node name="left_upper_leg" type="Bone2D" parent="Skeleton2D/tailbone"]
position = Vector2( -108, -55 )
rest = Transform2D( 1, 0, 0, 1, -105, 9 )

[node name="left_lower_leg" type="Bone2D" parent="Skeleton2D/tailbone/left_upper_leg"]
position = Vector2( -51, 85 )
rest = Transform2D( 1, 0, 0, 1, -33, 94 )

[node name="right_upper_leg" type="Bone2D" parent="Skeleton2D/tailbone"]
position = Vector2( 84, -46 )
rest = Transform2D( 1, 0, 0, 1, 121, 2 )

[node name="right_lower_leg" type="Bone2D" parent="Skeleton2D/tailbone/right_upper_leg"]
position = Vector2( 49, 76 )
rest = Transform2D( 1, 0, 0, 1, 42, 92 )
